
  {
    "list": [
      {
        "code": "14760184_20260614a10a7681e2797fb0",
        "title": "[서하™ BJ홍보방] 사랑/래서/하솔/미소/이유비/라율/이린",
        "titleJa": null,
        "userId": "1378906694@ka",
        "userIdx": 14760184,
        "userNick": "서하™",
        "userNickJa": null,
        "category": "ind",
        "isAdult": false,
        "isPw": false,
        "type": "free",
        "heart": 0,
        "user": 4,
        "userLimit": 300,
        "sizeWidth": 1280,
        "sizeHeight": 720,
        "browser": "web",
        "startTime": "2026-06-14 01:51:16",
        "endTime": "0000-00-00 00:00:00",
        "isLive": true,
        "onAirType": "live",
        "liveType": "live",
        "playCnt": 29,
        "likeCnt": 1,
        "bookmarkCnt": 14,
        "fanCnt": 178,
        "totalScoreCnt": 59,
        "newBjYN": "N",
        "storage": "ivs",
        "isGuestLive": "N",
        "thumbUrl": "https://cdn.pandalive.co.kr/thumbnails/2026/6/13/POGCViv16kD8_Fc1wrhdJaOOM_16_51.jpg",
        "userImg": "https://cdn.pandalive.co.kr/upload/user/ff/ff707359-9616-4a44-b179-a70a7f75220f.jpeg",
        "listUp": "",
        "listDeco": "0",
        "userUp": "",
        "quality": 0,
        "ivsThumbnail": "https://cdn.pandalive.co.kr/thumbnails/2026/6/13/POGCViv16kD8_Fc1wrhdJaOOM_16_51.jpg",
        "sttType": "",
        "globalYN": "N",
        "latencyMode": null,
        "thumbUrlOrigin": "https://cdn.pandalive.co.kr/thumbnails/2026/6/13/POGCViv16kD8_Fc1wrhdJaOOM_16_51.jpg"
      },
      {
        "code": "27300919_20260612eebefee6f0552a92",
        "title": "BJ블리,진아현,BJ루아 홍보방송",
        "titleJa": null,
        "userId": "karon30003",
        "userIdx": 27300919,
        "userNick": "❤️BJ블리❤️꿈꾸는문",
        "userNickJa": null,
        "category": "adt",
        "isAdult": false,
        "isPw": false,
        "type": "free",
        "heart": 0,
        "user": 5,
        "userLimit": 300,
        "sizeWidth": 1920,
        "sizeHeight": 1080,
        "browser": "web",
        "startTime": "2026-06-12 16:51:54",
        "endTime": "0000-00-00 00:00:00",
        "isLive": true,
        "onAirType": "live",
        "liveType": "live",
        "playCnt": 218,
        "likeCnt": 5,
        "bookmarkCnt": 25,
        "fanCnt": 18,
        "totalScoreCnt": 368,
        "newBjYN": "N",
        "storage": "ivs",
        "isGuestLive": "N",
        "thumbUrl": "https://cdn.pandalive.co.kr/thumbnails/2026/6/12/6d4ziOIMCHNA_mQ04DNexXJlR_7_51.jpg",
        "userImg": "https://cdn.pandalive.co.kr/upload/noimg/user/noimg_M1.jpg",
        "listUp": "",
        "listDeco": "0",
        "userUp": "",
        "quality": 0,
        "ivsThumbnail": "https://cdn.pandalive.co.kr/thumbnails/2026/6/12/6d4ziOIMCHNA_mQ04DNexXJlR_7_51.jpg",
        "sttType": "",
        "globalYN": "N",
        "latencyMode": null,
        "thumbUrlOrigin": "https://cdn.pandalive.co.kr/thumbnails/2026/6/12/6d4ziOIMCHNA_mQ04DNexXJlR_7_51.jpg"
      },
      {
        "code": "25538581_202606123c8f1e44d4516933",
        "title": "[홍보]한수연 ",
        "titleJa": null,
        "userId": "vip1975",
        "userIdx": 25538581,
        "userNick": "한수연✿Reaper",
        "userNickJa": null,
        "category": "ind",
        "isAdult": false,
        "isPw": false,
        "type": "free",
        "heart": 0,
        "user": 5,
        "userLimit": 300,
        "sizeWidth": 1920,
        "sizeHeight": 1080,
        "browser": "web",
        "startTime": "2026-06-12 17:45:33",
        "endTime": "0000-00-00 00:00:00",
        "isLive": true,
        "onAirType": "live",
        "liveType": "live",
        "playCnt": 217,
        "likeCnt": 3,
        "bookmarkCnt": 1,
        "fanCnt": 81,
        "totalScoreCnt": 307,
        "newBjYN": "N",
        "storage": "ivs",
        "isGuestLive": "N",
        "thumbUrl": "https://cdn.pandalive.co.kr/thumbnails/2026/6/12/isDm1bDZvUgU_C46XHlPelUEW_8_45.jpg",
        "userImg": "https://cdn.pandalive.co.kr/upload/user/96/966a7198-dbd3-49a8-96ef-9d8bd251dd13.jpeg",
        "listUp": "",
        "listDeco": "0",
        "userUp": "",
        "quality": 0,
        "ivsThumbnail": "https://cdn.pandalive.co.kr/thumbnails/2026/6/12/isDm1bDZvUgU_C46XHlPelUEW_8_45.jpg",
        "sttType": "",
        "globalYN": "N",
        "latencyMode": null,
        "thumbUrlOrigin": "https://cdn.pandalive.co.kr/thumbnails/2026/6/12/isDm1bDZvUgU_C46XHlPelUEW_8_45.jpg"
      },
      {
        "code": "27223295_20260613eb99e606532a468b",
        "title": "제작받아요~ ♥시그니처특가할인중♥ 캐릭터시그 AI시그 3D모션 영상편집 배너 네임택 등 홍보방송",
        "titleJa": null,
        "userId": "memestory",
        "userIdx": 27223295,
        "userNick": "memestory",
        "userNickJa": null,
        "category": "ind",
        "isAdult": false,
        "isPw": false,
        "type": "free",
        "heart": 0,
        "user": 9,
        "userLimit": 300,
        "sizeWidth": 1280,
        "sizeHeight": 720,
        "browser": "web",
        "startTime": "2026-06-13 19:39:27",
        "endTime": "0000-00-00 00:00:00",
        "isLive": true,
        "onAirType": "live",
        "liveType": "live",
        "playCnt": 57,
        "likeCnt": 1,
        "bookmarkCnt": 32,
        "fanCnt": 0,
        "totalScoreCnt": 87,
        "newBjYN": "N",
        "storage": "ivs",
        "isGuestLive": "N",
        "thumbUrl": "https://cdn.pandalive.co.kr/thumbnails/2026/6/13/KpX954q7Eqzu_RWwXTcNlKkpY_10_39.jpg",
        "userImg": "https://cdn.pandalive.co.kr/upload/noimg/user/noimg_M0.jpg",
        "listUp": "",
        "listDeco": "0",
        "userUp": "",
        "quality": 0,
        "ivsThumbnail": "https://cdn.pandalive.co.kr/thumbnails/2026/6/13/KpX954q7Eqzu_RWwXTcNlKkpY_10_39.jpg",
        "sttType": "",
        "globalYN": "N",
        "latencyMode": null,
        "thumbUrlOrigin": "https://cdn.pandalive.co.kr/thumbnails/2026/6/13/KpX954q7Eqzu_RWwXTcNlKkpY_10_39.jpg"
      },
      {
        "code": "26909512_20260613f94a8bdb90c405bf",
        "title": "(찐뉴비) 1일차 한예주ෆ사랑하는 모솔아재의 리니지클래식[lineageclassic] 카리요정",
        "titleJa": null,
        "userId": "dlstjse",
        "userIdx": 26909512,
        "userNick": "ෆ한예주ෆ롤하는모솔아재",
        "userNickJa": null,
        "category": "game",
        "isAdult": true,
        "isPw": false,
        "type": "free",
        "heart": 0,
        "user": 2,
        "userLimit": 1000,
        "sizeWidth": 1920,
        "sizeHeight": 1080,
        "browser": "web",
        "startTime": "2026-06-13 08:01:19",
        "endTime": "0000-00-00 00:00:00",
        "isLive": true,
        "onAirType": "live",
        "liveType": "live",
        "playCnt": 116,
        "likeCnt": 1,
        "bookmarkCnt": 25,
        "fanCnt": 20,
        "totalScoreCnt": 146,
        "newBjYN": "N",
        "storage": "ivs",
        "isGuestLive": "N",
        "thumbUrl": "https://cdn.pandalive.co.kr/upload/noimg/user/noimg_M1.jpg",
        "userImg": "https://cdn.pandalive.co.kr/upload/noimg/user/noimg_M1.jpg",
        "listUp": "",
        "listDeco": "0",
        "userUp": "",
        "quality": 0,
        "ivsThumbnail": "https://cdn.pandalive.co.kr/upload/noimg/user/noimg_M1.jpg",
        "sttType": "",
        "globalYN": "N",
        "latencyMode": null,
        "thumbUrlOrigin": "https://cdn.pandalive.co.kr/upload/noimg/user/noimg_M1.jpg"
      },
      {
        "code": "25137308_2026061248510c4ebe9f8c94",
        "title": "페르소나⛧홍서하ෆ린아ෆ⛧홍보방송 ",
        "titleJa": null,
        "userId": "sonamusic",
        "userIdx": 25137308,
        "userNick": "소나뮤직⛧",
        "userNickJa": null,
        "category": "ind",
        "isAdult": false,
        "isPw": false,
        "type": "free",
        "heart": 0,
        "user": 6,
        "userLimit": 100,
        "sizeWidth": 1920,
        "sizeHeight": 1080,
        "browser": "web",
        "startTime": "2026-06-12 19:36:56",
        "endTime": "0000-00-00 00:00:00",
        "isLive": true,
        "onAirType": "live",
        "liveType": "live",
        "playCnt": 135,
        "likeCnt": 2,
        "bookmarkCnt": 15,
        "fanCnt": 418,
        "totalScoreCnt": 195,
        "newBjYN": "N",
        "storage": "ivs",
        "isGuestLive": "N",
        "thumbUrl": "https://cdn.pandalive.co.kr/thumbnails/2026/6/12/isVA6xGED2gx_Y67whVeGkJZg_10_36.jpg",
        "userImg": "https://cdn.pandalive.co.kr/upload/user/25/255ba90c-0624-4dde-9c0c-1a55a0df672e.jpeg",
        "listUp": "",
        "listDeco": "0",
        "userUp": "",
        "quality": 0,
        "ivsThumbnail": "https://cdn.pandalive.co.kr/thumbnails/2026/6/12/isVA6xGED2gx_Y67whVeGkJZg_10_36.jpg",
        "sttType": "",
        "globalYN": "N",
        "latencyMode": null,
        "thumbUrlOrigin": "https://cdn.pandalive.co.kr/thumbnails/2026/6/12/isVA6xGED2gx_Y67whVeGkJZg_10_36.jpg"
      },
      {
        "code": "27365642_20260613903d406a49bf51f9",
        "title": "[홍보]✨설희/화원/선미/퓨어/한유린 홍보 방송입니다.",
        "titleJa": null,
        "userId": "ks4955931",
        "userIdx": 27365642,
        "userNick": "✨설희✨❤️홍보구름™",
        "userNickJa": null,
        "category": "ind",
        "isAdult": false,
        "isPw": false,
        "type": "free",
        "heart": 0,
        "user": 5,
        "userLimit": 300,
        "sizeWidth": 1920,
        "sizeHeight": 1080,
        "browser": "web",
        "startTime": "2026-06-13 07:03:44",
        "endTime": "0000-00-00 00:00:00",
        "isLive": true,
        "onAirType": "live",
        "liveType": "live",
        "playCnt": 163,
        "likeCnt": 1,
        "bookmarkCnt": 4,
        "fanCnt": 25,
        "totalScoreCnt": 193,
        "newBjYN": "N",
        "storage": "ivs",
        "isGuestLive": "N",
        "thumbUrl": "https://cdn.pandalive.co.kr/thumbnails/2026/6/12/cQszdV6xGAgy_DuWH4M7F4lag_22_3.jpg",
        "userImg": "https://cdn.pandalive.co.kr/upload/noimg/user/noimg_M0.jpg",
        "listUp": "",
        "listDeco": "0",
        "userUp": "",
        "quality": 0,
        "ivsThumbnail": "https://cdn.pandalive.co.kr/thumbnails/2026/6/12/cQszdV6xGAgy_DuWH4M7F4lag_22_3.jpg",
        "sttType": "",
        "globalYN": "N",
        "latencyMode": null,
        "thumbUrlOrigin": "https://cdn.pandalive.co.kr/thumbnails/2026/6/12/cQszdV6xGAgy_DuWH4M7F4lag_22_3.jpg"
      },
      {
        "code": "28109312_202606139d5faae1456017eb",
        "title": "홍보방 장미, 릴리, 클로이, 바둑이, 타로. 음방. 라이브. 댄스. 소통. 배너방",
        "titleJa": null,
        "userId": "ghdi1529",
        "userIdx": 28109312,
        "userNick": "처음처럼✨",
        "userNickJa": null,
        "category": "ind",
        "isAdult": false,
        "isPw": false,
        "type": "free",
        "heart": 0,
        "user": 5,
        "userLimit": 300,
        "sizeWidth": 1280,
        "sizeHeight": 720,
        "browser": "web",
        "startTime": "2026-06-13 09:15:13",
        "endTime": "0000-00-00 00:00:00",
        "isLive": true,
        "onAirType": "live",
        "liveType": "live",
        "playCnt": 172,
        "likeCnt": 2,
        "bookmarkCnt": 6,
        "fanCnt": 5,
        "totalScoreCnt": 232,
        "newBjYN": "N",
        "storage": "ivs",
        "isGuestLive": "N",
        "thumbUrl": "https://cdn.pandalive.co.kr/thumbnails/2026/6/13/iY4lYvXcURxt_qLEtR8mPqZY3_0_15.jpg",
        "userImg": "https://cdn.pandalive.co.kr/upload/noimg/user/noimg_M1.jpg",
        "listUp": "",
        "listDeco": "0",
        "userUp": "",
        "quality": 0,
        "ivsThumbnail": "https://cdn.pandalive.co.kr/thumbnails/2026/6/13/iY4lYvXcURxt_qLEtR8mPqZY3_0_15.jpg",
        "sttType": "",
        "globalYN": "N",
        "latencyMode": null,
        "thumbUrlOrigin": "https://cdn.pandalive.co.kr/thumbnails/2026/6/13/iY4lYvXcURxt_qLEtR8mPqZY3_0_15.jpg"
      },
      {
        "code": "24767017_2026061371772d6661fa9d67",
        "title": "[고퀄제작]엑셀움짤시그/AI대기화면/네임택/입장영상/VIP이펙트/큰손등장/네임택/특수효과/전광판레졸룸/배너/홍보영상/기념일영상 등",
        "titleJa": null,
        "userId": "hersj1",
        "userIdx": 24767017,
        "userNick": "미디어마켓",
        "userNickJa": null,
        "category": "ind",
        "isAdult": false,
        "isPw": false,
        "type": "free",
        "heart": 0,
        "user": 4,
        "userLimit": 300,
        "sizeWidth": 1920,
        "sizeHeight": 1080,
        "browser": "web",
        "startTime": "2026-06-13 06:37:46",
        "endTime": "0000-00-00 00:00:00",
        "isLive": true,
        "onAirType": "live",
        "liveType": "live",
        "playCnt": 93,
        "likeCnt": 1,
        "bookmarkCnt": 21,
        "fanCnt": 33,
        "totalScoreCnt": 123,
        "newBjYN": "N",
        "storage": "ivs",
        "isGuestLive": "N",
        "thumbUrl": "https://cdn.pandalive.co.kr/thumbnails/2026/6/12/GOL1AhHvrTvU_J01DgNurQdvW_21_37.jpg",
        "userImg": "https://cdn.pandalive.co.kr/upload/noimg/user/noimg_F0.jpg",
        "listUp": "",
        "listDeco": "0",
        "userUp": "",
        "quality": 0,
        "ivsThumbnail": "https://cdn.pandalive.co.kr/thumbnails/2026/6/12/GOL1AhHvrTvU_J01DgNurQdvW_21_37.jpg",
        "sttType": "",
        "globalYN": "N",
        "latencyMode": null,
        "thumbUrlOrigin": "https://cdn.pandalive.co.kr/thumbnails/2026/6/12/GOL1AhHvrTvU_J01DgNurQdvW_21_37.jpg"
      },
      {
        "code": "23116563_20260613fce1c51047295862",
        "title": "유하 홍보방 휴방중 15일 복귀/샤머공방 시그니처, 배너, 네임택, AI테마곡 제작 / 저작권 걱정없는 Ai제작노래 송출중",
        "titleJa": null,
        "userId": "dyheo9785",
        "userIdx": 23116563,
        "userNick": "only유하❤️일벌샤묘",
        "userNickJa": null,
        "category": "ind",
        "isAdult": false,
        "isPw": false,
        "type": "free",
        "heart": 0,
        "user": 5,
        "userLimit": 300,
        "sizeWidth": 1280,
        "sizeHeight": 720,
        "browser": "web",
        "startTime": "2026-06-13 19:46:25",
        "endTime": "0000-00-00 00:00:00",
        "isLive": true,
        "onAirType": "live",
        "liveType": "live",
        "playCnt": 82,
        "likeCnt": 1,
        "bookmarkCnt": 23,
        "fanCnt": 309,
        "totalScoreCnt": 112,
        "newBjYN": "N",
        "storage": "ivs",
        "isGuestLive": "N",
        "thumbUrl": "https://cdn.pandalive.co.kr/thumbnails/2026/6/13/su3WhiVAsoO1_hEBdt0lQrvRV_10_46.jpg",
        "userImg": "https://cdn.pandalive.co.kr/upload/user/99/990d2d0b-a11b-4332-ba2a-9245e425da6a.png",
        "listUp": "",
        "listDeco": "0",
        "userUp": "",
        "quality": 0,
        "ivsThumbnail": "https://cdn.pandalive.co.kr/thumbnails/2026/6/13/su3WhiVAsoO1_hEBdt0lQrvRV_10_46.jpg",
        "sttType": "",
        "globalYN": "N",
        "latencyMode": null,
        "thumbUrlOrigin": "https://cdn.pandalive.co.kr/thumbnails/2026/6/13/su3WhiVAsoO1_hEBdt0lQrvRV_10_46.jpg"
      },
      {
        "code": "18807872_202606149ab47ecbbed153c9",
        "title": "홍보방.보라.단지.작은별.제이.육덕노랭이.화원.미니",
        "titleJa": null,
        "userId": "whiteforever",
        "userIdx": 18807872,
        "userNick": "✨BJ보라ღ폭군✨",
        "userNickJa": null,
        "category": "ind",
        "isAdult": false,
        "isPw": false,
        "type": "free",
        "heart": 0,
        "user": 5,
        "userLimit": 100,
        "sizeWidth": 1920,
        "sizeHeight": 1080,
        "browser": "web",
        "startTime": "2026-06-14 04:54:18",
        "endTime": "0000-00-00 00:00:00",
        "isLive": true,
        "onAirType": "live",
        "liveType": "live",
        "playCnt": 14,
        "likeCnt": 0,
        "bookmarkCnt": 5,
        "fanCnt": 505,
        "totalScoreCnt": 14,
        "newBjYN": "N",
        "storage": "ivs",
        "isGuestLive": "N",
        "thumbUrl": "https://cdn.pandalive.co.kr/thumbnails/2026/6/13/p5LTB6RZPcVa_8m6ZwDzUQoWM_19_54.jpg",
        "userImg": "https://cdn.pandalive.co.kr/upload/noimg/user/noimg_M1.jpg",
        "listUp": "",
        "listDeco": "0",
        "userUp": "",
        "quality": 0,
        "ivsThumbnail": "https://cdn.pandalive.co.kr/thumbnails/2026/6/13/p5LTB6RZPcVa_8m6ZwDzUQoWM_19_54.jpg",
        "sttType": "",
        "globalYN": "N",
        "latencyMode": null,
        "thumbUrlOrigin": "https://cdn.pandalive.co.kr/thumbnails/2026/6/13/p5LTB6RZPcVa_8m6ZwDzUQoWM_19_54.jpg"
      },
      {
        "code": "25297755_20260612ce5e11c7884f0bc5",
        "title": "[홍보]⭐BJ예화⭐06월19일 오후3시 1주년 망강부",
        "titleJa": null,
        "userId": "wkdejrdnj",
        "userIdx": 25297755,
        "userNick": "예화1주년0619ღ피탈",
        "userNickJa": null,
        "category": "ind",
        "isAdult": false,
        "isPw": false,
        "type": "free",
        "heart": 0,
        "user": 5,
        "userLimit": 1000,
        "sizeWidth": 1920,
        "sizeHeight": 1080,
        "browser": "web",
        "startTime": "2026-06-12 20:30:31",
        "endTime": "0000-00-00 00:00:00",
        "isLive": true,
        "onAirType": "live",
        "liveType": "live",
        "playCnt": 219,
        "likeCnt": 7,
        "bookmarkCnt": 12,
        "fanCnt": 374,
        "totalScoreCnt": 429,
        "newBjYN": "N",
        "storage": "ivs",
        "isGuestLive": "N",
        "thumbUrl": "https://cdn.pandalive.co.kr/thumbnails/2026/6/12/RJP0N6muwjlG_L3PMr4rgMQL6_11_30.jpg",
        "userImg": "https://cdn.pandalive.co.kr/upload/user/fc/fc3d6f42-acad-44ed-922d-10a974c04dcb.png",
        "listUp": "",
        "listDeco": "0",
        "userUp": "",
        "quality": 0,
        "ivsThumbnail": "https://cdn.pandalive.co.kr/thumbnails/2026/6/12/RJP0N6muwjlG_L3PMr4rgMQL6_11_30.jpg",
        "sttType": "",
        "globalYN": "N",
        "latencyMode": null,
        "thumbUrlOrigin": "https://cdn.pandalive.co.kr/thumbnails/2026/6/12/RJP0N6muwjlG_L3PMr4rgMQL6_11_30.jpg"
      },
      {
        "code": "22494230_20260613d67c0226bccd0a98",
        "title": "[홍보] 김코치 고퀄리티 입장영상제작",
        "titleJa": null,
        "userId": "skaru7",
        "userIdx": 22494230,
        "userNick": "김코치입장영상제작",
        "userNickJa": null,
        "category": "talk",
        "isAdult": false,
        "isPw": false,
        "type": "free",
        "heart": 0,
        "user": 4,
        "userLimit": 300,
        "sizeWidth": 1280,
        "sizeHeight": 720,
        "browser": "web",
        "startTime": "2026-06-13 17:02:29",
        "endTime": "0000-00-00 00:00:00",
        "isLive": true,
        "onAirType": "live",
        "liveType": "live",
        "playCnt": 54,
        "likeCnt": 1,
        "bookmarkCnt": 42,
        "fanCnt": 66,
        "totalScoreCnt": 84,
        "newBjYN": "N",
        "storage": "ivs",
        "isGuestLive": "N",
        "thumbUrl": "https://cdn.pandalive.co.kr/thumbnails/2026/6/13/lrpEA1Rpa32s_zgx71ie0IXak_8_2.jpg",
        "userImg": "https://cdn.pandalive.co.kr/upload/noimg/user/noimg_M1.jpg",
        "listUp": "",
        "listDeco": "0",
        "userUp": "",
        "quality": 0,
        "ivsThumbnail": "https://cdn.pandalive.co.kr/thumbnails/2026/6/13/lrpEA1Rpa32s_zgx71ie0IXak_8_2.jpg",
        "sttType": "",
        "globalYN": "N",
        "latencyMode": null,
        "thumbUrlOrigin": "https://cdn.pandalive.co.kr/thumbnails/2026/6/13/lrpEA1Rpa32s_zgx71ie0IXak_8_2.jpg"
      },
      {
        "code": "14868818_202606138ec876669b44109f",
        "title": "BJ 제인, 한세아, 소민, 아벨, 유하린, 나경, 이엘, 유리아, 비나리 홍보방",
        "titleJa": null,
        "userId": "korean1004",
        "userIdx": 14868818,
        "userNick": "✧쿤이✧",
        "userNickJa": null,
        "category": "ind",
        "isAdult": false,
        "isPw": false,
        "type": "free",
        "heart": 0,
        "user": 5,
        "userLimit": 300,
        "sizeWidth": 640,
        "sizeHeight": 360,
        "browser": "web",
        "startTime": "2026-06-13 10:51:42",
        "endTime": "0000-00-00 00:00:00",
        "isLive": true,
        "onAirType": "live",
        "liveType": "live",
        "playCnt": 166,
        "likeCnt": 7,
        "bookmarkCnt": 9,
        "fanCnt": 21,
        "totalScoreCnt": 376,
        "newBjYN": "N",
        "storage": "ivs",
        "isGuestLive": "N",
        "thumbUrl": "https://cdn.pandalive.co.kr/thumbnails/2026/6/13/N8QtRMVQVy2E_XKdV1nbU227E_1_51.jpg",
        "userImg": "https://cdn.pandalive.co.kr/upload/noimg/user/noimg_M0.jpg",
        "listUp": "",
        "listDeco": "0",
        "userUp": "",
        "quality": 0,
        "ivsThumbnail": "https://cdn.pandalive.co.kr/thumbnails/2026/6/13/N8QtRMVQVy2E_XKdV1nbU227E_1_51.jpg",
        "sttType": "",
        "globalYN": "N",
        "latencyMode": null,
        "thumbUrlOrigin": "https://cdn.pandalive.co.kr/thumbnails/2026/6/13/N8QtRMVQVy2E_XKdV1nbU227E_1_51.jpg"
      },
      {
        "code": "11419478_20260612e56eb5f6a5b9fff0",
        "title": "홍보 및 대기방",
        "titleJa": null,
        "userId": "tumbtesting",
        "userIdx": 11419478,
        "userNick": "Best깡",
        "userNickJa": null,
        "category": "adt",
        "isAdult": true,
        "isPw": false,
        "type": "free",
        "heart": 0,
        "user": 3,
        "userLimit": 900,
        "sizeWidth": 1920,
        "sizeHeight": 1080,
        "browser": "web",
        "startTime": "2026-06-12 19:11:27",
        "endTime": "0000-00-00 00:00:00",
        "isLive": true,
        "onAirType": "live",
        "liveType": "live",
        "playCnt": 119,
        "likeCnt": 1,
        "bookmarkCnt": 36,
        "fanCnt": 288,
        "totalScoreCnt": 149,
        "newBjYN": "N",
        "storage": "ivs",
        "isGuestLive": "N",
        "thumbUrl": "https://cdn.pandalive.co.kr/upload/user/95/956b1547-d51b-4853-b3a9-4d0b3d887acb.jpeg",
        "userImg": "https://cdn.pandalive.co.kr/upload/user/95/956b1547-d51b-4853-b3a9-4d0b3d887acb.jpeg",
        "listUp": "",
        "listDeco": "0",
        "userUp": "",
        "quality": 0,
        "ivsThumbnail": "https://cdn.pandalive.co.kr/upload/user/95/956b1547-d51b-4853-b3a9-4d0b3d887acb.jpeg",
        "sttType": "",
        "globalYN": "N",
        "latencyMode": null,
        "thumbUrlOrigin": "https://cdn.pandalive.co.kr/upload/user/95/956b1547-d51b-4853-b3a9-4d0b3d887acb.jpeg"
      }
    ],
    "page": {
      "offset": 192,
      "limit": 96,
      "total": 207,
      "page": 3,
      "lastPage": 3
    },
    "result": true,
    "message": "",
    "userIp": "162.158.138.56"
  }

